graph {
    Datation -- {"Avant J.C." Antiquité "Aprés J.C."};
	"Avant J.C." -- { Préhistoire "VIe siècle avant J.-C." "Ve siècle avant J.-C." "IVe siècle avant J.-C." "IIIe siècle avant J.-C."
		"IIe siècle avant J.-C." "Ier siècle avant JC"};
	"Aprés J.C." -- { "Ier siècle" "IIe siècle" "IIe siècle" "IIIe siècle" "Antiquité tardive" "Moyen Âge" "Epoque moderne" "Epoque contemporaine" };
	Préhistoire -- { "âge de la pierre" "âge du bronze" "âge du fer" }; 
	"âge de la pierre" -- { Paléolithique Epipaléolithique Mésolithique Néolithique}; 
	Paléolithique -- { "Paléolithique inférieur" "Paléolithique moyen" "Paléolithique supérieur" };
	Néolithique -- Chalcolithique;
	Antiquité -- { "Antiquité classique" "Antiquité tardive"};
	"Antiquité classique" -- { "VIe siècle avant J.-C." "Ve siècle avant J.-C." "IVe siècle avant J.-C." "IIIe siècle avant J.-C."
		"IIe siècle avant J.-C." "Ier siècle avant JC" "Ier siècle" "IIe siècle" "IIe siècle" "IIIe siècle"};
	"Antiquité tardive" -- { "IVe siècle" "Ve siècle"};
	"Moyen Âge" -- { "Haut Moyen Âge" "Moyen Âge Central" "Moyen Âge Tardif" "Renaissance"};
	"Haut Moyen Âge" -- { "Ve siècle" "VIe siècle" "VIIe siècle" "VIIIe siècle" "IXe siècle" "Xe siècle" };
	"Moyen Âge Central" -- { "XIe siècle" "XIIe siècle" "XIIIe siècle" };
	"Moyen Âge Tardif" -- { "XIVe siècle" "XVe siècle" };
	"Renaissance" -- { "XIIIe siècle" "XIVe siècle" "XVe siècle" };
	"Epoque moderne" -- { "XVIe siècle" "XVIIe siècle" "XVIIIe siècle"};
	"Epoque contemporaine" -- { "XIXe siècle" "XXe siècle" "XXIe siècle" };
}